code,description
20100016,"DALLA BENETTA SCHIANTARELLI S.R.L."
20100018,"FILATURA DI CHIAVAZZA SPA"
20100077,"ILARIA SRL - MANIF.LANE - FIL.FANTASIA"
20100205,"LORA & FESTA S.P.A."
20100229,"SILVIO FRANCESCHINI S.P.A."
20100231,"LANECARDATE SPA"
20100234,"EMILCOTONI SPA (NON USARE)"
20100245,"LEDAL SPA"
20100247,"FILATI BURATTI SPA"
20100249,"FILATI FILARTEX S.P.A.   - NON USARE"
20100251,"TEXWELL ITALIANA SRL"
20100265,"MANIFATTURA IGEA SPA"
20100273,"LANAR SPA"
20100299,"NASTRIFICIO BERICO SNC DI VERANDA A.& C."
20100386,"FIL.TESS. DI TOLLEGNO S.P.A."
20100425,"OVERFIL S.R.L."
20100456,"FILATURA DI GRIGNASCO S.P.A."
20100497,"millefili s.p.a."
20100553,"LORO PIANA SPA"
20100581,"FILPUCCI SPA A SOCIO UNICO"
20100585,"RAUMER (NON USARE)"
20100613,"GRUPPO TESSILE INDUSTRIALE SPA"
20100689,"CARIAGGI LANIFICIO SPA"
20100690,"MANIFATTURA SESIA SRL"
20100698,"COMITAL S.P.A. - DIVISIONE (NON USARE)"
20100701,"LINIFICIO E CANAPIFICIO NAZ.SPA"
20100793,"BE.MI.VA  SPA   -FILATI-"
20100815,"LEGNANO TINTI SPA"
20100904,"BOTTO LUIGI S.P.A.(NON USARE)"
20101028,"INDUSTRIA ITALIANA FILATI SPA"
20101058,"FILORE' S.P.A."
20101075,"BOTTO POALA S.P.A."
20102052,"FILMAR S.P.A."
20102130,"LINEAPIU' SPA IN A.S.        -NON USARE"
20102146,"FILCLASS SRL"
20102251,"I.A.FIL INDUSTRIA AMBROSIANA FILATI SPA"
20102265,"ZEGNA BARUFFA - LANE BORGOSESIA S.P.A."
20102266,"ELETTA INDUSTRIA FILATI SRL"
20102303,"ALPES MANIFATTURA FILATI SPA(non usare)"
20102304,"MISTER JOE S.R.L."
20102306,"BINICOCCHI SRL"
20102333,"AVIA SPA"
20102366,"ANDREA BILICS & C. SRL"
20102381,"PINORI FILATI S.P.A."
20102428,"IDO MINOLA FILATI SRL"
20102444,"MAGL.JADERA SAS DI RENATO BORIN E C."
20102456,"LUIGI BOLDRINI S.R.L."
20102460,"FILCOMPANY SRL"
20102472,"VIMAR 1991 DI G., G. VIANA & C. SAS"
20102539,"SILDOREX S.A."
20102554,"COMPAGNIA TESSILE FILATI S.R.L."
20102556,"FILOSETA S.R.L."
20102565,"MASTER PROPOSTE TESSILI SRL"
20102662,"SCHOELLER GMBH E COKG"
20102718,"SINFLEX SAS DI LOVERO LUCA & C."
20102733,"GALTES SPA"
20102748,"FILOMAGLIA SRL"
20102767,"HF FILATI SPA SOCIETA' CON SOCIO UNICO"
20102813,"DI.VE' SPA"
20102864,"GALLI FILATI S.P.A (NON USARE)"
20102872,"BANCHINI ROMANO S.R.L FILATI"
20102879,"MARZOTTO S.P.A."
20102986,"FILOTECA SRL"
20103011,"MILLEFILI SPA"
20103013,"CLERICI TESSUTO & C. S.P.A."
20103047,"NUOVA MODA SRL"
20103055,"FIBRE NOBILI SRL"
20103067,"ECAFIL BEST S.P.A. INDUSTRIA FILATI"
20103121,"COTONIFICIO ROBERTO FERRARI SPA"
20103142,"LANIFICIO DELL'OLIVO SPA"
20103153,"BLURING SPA"
20103157,"THESSA INDUSTRIA FILATI SRL"
20103200,"NATURAL FANTASY SPA"
20103227,"FOGLIANO&DOSIO DI G.DOSIO (NON USARE)"
20103283,"MANIFATTURE FILATI RIUNITE SPA"
20103315,"FILFASHION SRL"
20103386,"TODD&DUNCAN A DIV.OF DAW INT TRAD.LTD"
20103500,"BULGARI FILATI SPA"
20103656,"OLIMPIAS SPA"
20103667,"AURORA MAGLIFICIO SRL  - MAGIA"
20103738,"FILARC SRL"
20103745,"FILATI BIAGIOLI MODESTO SPA"
20103763,"I.L.C.A.T. SPA"
20103768,"EMILCOTONI SPA"
20103769,"CATANZARO FILATI SPA"
20103823,"MIZAR SRL"
20103909,"SILANCO SPA"
20103972,"BOTTO GIUSEPPE & FIGLI SPA"
20104019,"BUGETTI BY GRIGNASCO SRL"
20104077,"LUSTROSA SRL"
20104384,"PECCI FILATI S.P.A."
20104418,"FASHION MILL S.R.L."
20104421,"FILATURA TRE ESSE S.R.L."
20104490,"SAWADA CO. LTD"
20104516,"PAYEN SA"
20104547,"FILATURA PAPI FABIO SPA"
20104601,"COMOFIL S.R.L."
20104603,"LANIFICIO LUIGI BOTTO SPA IN A.S."
20104607,"INDUSTRIA MAGLIERIA CRESPI BENEDETTO SRL"
20104771,"ALPES MANIFATTURA FILATI SPA"
20104959,"HASEGAWA CORPORATION"
20104968,"COMITAL S.P.A."
20104982,"GERIFIL SRL"
20105077,"E. MIROGLIO SRL - UNICO SOCIO"
20105083,"TORCITURA CARLO PESSINA SRL"
20105169,"J C RENNIE & CO.WOOL SPINNERS -NON USARE"
20105182,"SETICA DI AGNESE MAZZONI"
20105197,"Z.HINCHLIFFE & SONS LIMITED"
20105221,"MF1 SRL"
20105282,"LBF S.P.A."
20105320,"FILIVIVI SRL CON UNICO SOCIO"
20105356,"TOSCANO SRL"
20105368,"KYOWA COMPANY LTD."
20105454,"SATO SENI CO., LTD"
20105463,"FENDI S.R.L."
20105523,"RITORCITURA BARDELLI GIANFRANCO S.R.L."
20105560,"NUOVA NICOL S.R.L."
20105694,"BIELLA YARN BY SUDWOLLE S.R.L."
20105700,"FRATELLI REALI & C. S.P.A."
20105701,"TODD & DUNCAN LIMITED"
20105703,"GRIGNASCO 1894 S.R.L."
20105714,"FILITALY-LAB SRL"
20105788,"LINEAPIU' ITALIA S.P.A."
20105804,"MODIT S.R.L."
20105805,"FILATI COLOR SRL"
20105882,"PRISMA RICERCHE SAS DI CORNALE FLAVIO"
