code,description
"AB","ABITIFICIO"
"AE","AGNES B"
"AG","AGNONA DONNA"
"AQ","AQUASCUTUM DONNA-P"
"AS","ALAIA prod."
"AV","AVANT-donna"
"BA","BALENCIAGA"
"BD","LIDA BADAY"
"BL","BRIONI UOMO"
"BR","BRIONI DONNA"
"BW","BROWNS"
"BY","BARNEY'S produzione"
"C","Celine Old"
"CD","CHRISTIAN DIOR"
"CE","Celine"
"CO","CORSO COMO 10"
"CR","ROBERTO CAVALLI UOMO"
"CS","Cleo Stein"
"CU","CERRUTI  1881"
"CV","ROBERTO CAVALLI DONNA"
"DB","DEBORA SINIBALDI PROD."
"DG","DOLCE & GABBANA"
"DK","Donna Karan"
"DS","DONNA KARAN SIGNATURE PR."
"DU","DG UOMO"
"EP","EMILIO PUCCI"
"ER","E. CERINI"
"FE","FENDI DONNA - Produzione"
"FU","FERRE UOMO"
"G1","GA CAMP.DONNA"
"GA","GIORGIO ARMANI DONNA"
"GD","GUCCI DONNA prod"
"GG","GA forniture x produzione"
"GI","GUCCI ACC."
"GK","G.ARMANI KIDS PRODUZIONE"
"GR","GENTE ROMA PRODUZIONE"
"GS","GABRIELE STREHLE DONNA"
"GU","GIORGIO ARMANI UOMO"
"GY","GIVENCHY-prod"
"IU","INDUSTRIA UOMO"
"JM","MARC JACOBS"
"LA","LANVIN DONNA PROD."
"LH","LANVIN HOMME produzione"
"LP","LA PERLA"
"LR","RENA LANGE"
"LU","VUITTON PAP HOMME PRODUZ."
"LV","LOUIS VUITTON"
"ML","MILES coperte"
"MR","REBECCA MOSES"
"MS","MILES 'SHOP'"
"MT","MUS - prod"
"NT","NAO TAKEKOSHI-PRODUZION"
"NU","NUDE"
"OR","OSCAR D.RENTA"
"PB","P.PECORA MAGLIA"
"PF","PICCINI FRANC."
"PI","PRINGLE OF SCOTLAND LIMIT"
"PM","PRINGLE SC.U-P"
"PP","PAOLO PECORA"
"PR","PRADA"
"PT","P.PECORA TESSUTO"
"RC","RYKIEL camp.donna"
"RD","ACCESSORI RYKIEL"
"RS","RYKIEL DONNA"
"SF","SALVATORE FERRAGAMO"
"SR","Sonia Rykiel"
"SU","S. FERRAGAMO UOMO - PROD."
"TB","THOM BROWNE"
"TE","TESTONI PRODUZIONE"
"TH","THOM BROWNE U-P"
"TR","The Row"
"US","U.SERGEENKO - P"
"UT","BUGATTI UOMO Produzione"
"VA","VALENTINO"
"VL","VALENTINO BOUT.acc.prod."
"VN","VIONNET"
"VR","VALENTINO ROMA"
"VW","WESTWOOD DONNA"
"WW","WESTWOOD UOMO"
"YP","YVES ST LAURENT PROD."
"AW","ALEXANDER WANG"
"BV","BOTTEGA V.TA -D"
"BZ","BOTTEGA VENETA UOMO-prod."
"DE","DEVI KROELL"
"DQ","DSQUARED - PROD"
"FB","FBS SRL - prod"
"FN","FENDI SKI-PROD"
"HD","Hermes donna"
"MI","MISSONI DONNA-Produzione"
"MO","MONCLER"
"MY","MONCLER D.PROD."
"SA","SARLI Donna-Produzione"
"SI","STEFANO RICCI P"
"UG","BUGATTI DONNA Produzione"
"VM","VALENTINO UOMO"
"YM","YVES ST.LAU.man"
