code,description
"BA      9","163560 ML30 PULL CARDIGAN"
"CS    264"," PULL D.M/C"
"ER    850","GIACCHINO"
"G1   1400","PARTI MAGLIA"
"GA   1005","GIACCA stretta"
"GA   2483","PULL m/l"
"GA   2484","PULL s/m"
"GA   2487","EX. DIS.8 CANOTTA"
"GA   2568","PULL M/C"
"GA   2569","PULL M/L"
"GA   2574","CARDIGAN M/L"
"GA   2576","GONNA"
"GA   2586","POLO M/C"
"GA   2587","CARDIGAN M/L"
"GA   2717","PULL M/C"
"GA   2718","POLO M/L"
"GA   2720","CARDIGAN M/L"
"GA   2728","PULL M/C"
"GA   2730","TWIN SET"
"GA   2731","PULL S/M"
"GA   2736","PULL M/L"
"GA   2989","CAPPOTTO M/L"
"GA   2998","CARDIGAN M/L"
"GA   3002","PULL GIROCOLLO M/L"
"GA   3003","CANOTTA"
"GA   3004","GIACCA M/L"
"GA   3008","CAPPOTTO M/L"
"GA   3068","GIACCA"
"GA   3167","PULL M/L"
"GA   3168","CANOTTA"
"GA   3170","PULL M/C"
"GA   3175","PULL M/L"
"GA   3177","PULL M/L"
"GA   3184","PULL M/C"
"GA   3191","PULL M/L"
"GA   3259","PULL M/L"
"GA   3327","CANOTTA"
"GA   3339","CARDIGAN"
"GA   3457","PULL M/L"
"GA   3487","PULL S/M"
"GA   3514","GIACCA"
"GA   3526","PULL M/L"
"GA   3590","GIACCA"
"GA   3591","PULL M/L"
"GA   3592","CANOTTA"
"GA   3717","CANOTTA"
"GA   3727","GIACCA"
"GA   3755","PULL M/L"
"GA   3758","PULL M/L"
"GA   3759","EX MOD.7 CANOTTA"
"GA   3768","PULL M/L"
"GA   3773","PULL M/L"
"GA   3778","PULL M/L"
"GA   3817","EX.DIS.6000 GONNA TUBINO LUNGA"
"GA   4175","EX.DIS.22 GIACCHINO"
"GA   4176","GIACCA"
"GA   4220","CANOTTA"
"GA   4256","T-SHIRT"
"GA   4352","GIACCA"
"GA   4365","EX.DIS.15 GIUBBINO"
"GA   4378","EX.DIS.G1 GIACCA"
"GA   4402","PULL M/L"
"GA   4486","GIACCA"
"GA    454","GIACCA"
"GA   4551","CANOTTA"
"GA   4553","GIACCA"
"GA   4566","TOP"
"GA   4569","GONNA"
"GA   4576","GIACCA"
"GA   4580","GIACCA"
"GA   4583","GIACCA"
"GA   4585","GIACCA"
"GA   4610","GONNA"
"GA   4614","GONNA"
"GA   4622","PULL M/L"
"GA   4632","EX.DIS.12 GIACCA"
"GA   4659","ABITO"
"GA   4662","CANOTTA"
"GA   4845","CANOTTA"
"GA   4846","EX.DIS.30 PULL D. COLLO ALTO M"
"GA   4848","GIACCA"
"GA   4850","GIACCA"
"GA   4856","GIACCHINO"
"GA   4860","EX.DIS.16 BOMBER"
"GA   4862","CANOTTA"
"GA   4868","GIACCA"
"GA   4869","EX.DIS.PL106 CAPPOTTO"
"GA   4872","EX.DIS.G101 GIACCA"
"GA   4874","GIACCA"
"GA   4904","CAPPOTTO"
"GA   4913","GIACCHINO"
"GA   4914","GIACCHINO"
"GA   4945","PULL M/L"
"GA   5050","PULL M/C"
"GA   5055","GIACCA"
"GA   5072","GIACCA"
"GA   5077","CANOTTA"
"GA   5090","GIACCA"
"GA   5091","GIACCA"
"GA   5095","GIACCA"
"GA   5099","EX.DIS.10 TOP"
"GA   5103","GONNA"
"GA   5127","PULL M/C"
"GA   5137","GIACCA"
"GA   5166","PULL M/C"
"GA    766","ABITO L.largo"
"GA    909","PULL c.polo"
"GA    910","GIACCA stretta"
"GA    911","GONNA L."
"GA    912","PULL giroc.m/c"
"GU   2277","PULL m/l"
"GU   2405","PULL COLLO ALTO M/L"
"GU   2441","PULL GIROCOLLO M/L"
"GU   2483","PULL M/L"
"GU   2485","PULL M/L"
"GU   2491","POLO M/L"
"GU   2493","PULL M/L"
"GU   2494","PULL A -V- M/L"
"GU   2501","PULL M/L"
"GU   2502","PULL M/L"
"GU   2526","PULL M/L"
"GU   2528","PULL M/L"
"GU   2538","PULL M/L"
"GU   2550","PULL M/L"
"GU   2551","PULL M/C"
"GU   2553","PULL M/L"
"GU   2555","PULL M/L"
"GU   2562","PULL M/L"
"GU   2565","PULL M/L"
"GU   2566","PULL M/L"
"GU   2620","PULL M/L"
"GU   2621","PULL M/L"
"GU   2650","CARDIGAN"
"GU   2654","PULL M/L"
"GU   2663","PULL M/L"
"GU   2666","POLO M/L"
"GU   2685","CARDIGAN"
"GU   2694","PULL M/L"
"GU   2701","CARDIGAN"
"GU   2763","PULL M/L"
"GU   2769","EX DIS.35 PULL UOMO COL.POLO m"
"GU   2774","PULL M/L"
"GU   2780","PULL M/C"
"GU   2781","PULL M/L"
"GU   2793","EX DIS.4 POLO UOMO MANICA LUNG"
"GU   2868","PULL M/L"
"GU   2961","GIACCA"
"GU   3013","PULL M/L"
"GU   3027","PULL M/L"
"GU   3073","PULL M/L"
"GU   3106","PULL M/L"
"GU   3143","GIACCA"
"GU    315","GILET a V"
"GU   3156","GIACCA"
"GU   3208","PULL M/L"
"GU   3269","PULL M/L"
"GU   3271","PULL M/C"
"GU   3272","PULL M/L"
"GU   3274","PULL M/L"
"GU   3275","PULL M/C"
"GU   3276","GIACCA"
"GU   3326","PULL M/L"
"GU   3342","PULL M/L"
"GU   3347","GIACCA"
"GU   3350","PULL M/L"
"GU   3355","PULL M/C"
"GU   3356","PULL M/C"
"GU   3368","GIACCA"
"GU   3406","PULL M/L"
"GU   3407","GIACCA"
"GU   3418","PULL M/L"
"GU   3430","PULL M/L"
"GU   3431","GIUBBINO"
"GU   3437","PULL M/L"
"GU   3438","GIACCA"
"GU   3444","GILET"
"GU   3482","CAMICIA"
"GU   3495","GIACCA"
"GU   3499","GIACCA"
"GU   3510","PULL M/L"
"GU   3512","PULL M/L"
"GU   3513","PULL M/L"
"GU   3515","PULL M/L"
"GU   3537","POLO M/C"
"GU   3540","PULL M/L"
"GU   3543","PULL M/L"
"GU   3544","EX DIS.13 PULL UOMO GIROCOLLO"
"GU   3545","GIUBBINO"
"GU   3553","PULL M/L"
"GU   3556","PULL M/L"
"GU   3557","GIACCA"
"GU   3558","EX DIS.36 PULL UOMO GIROCOLLO"
"GU   3561","PULL M/L"
"GU   3563","CAMICIA M/L"
"GU   3564","EX DIS.27 PULL UOMO SCOLLATO V"
"GU   3567","EX DIS.20 GIACCA"
"GU   3569","EX DIS.21 PULL UOMO SCOLLATO V"
"GU   3572","EX.DIS.66 GIACCA"
"GU   3575","GIACCA"
"GU   3577","EX.DIS.61 PULL UOMO GIROCOLLO"
"GU   3578","GIACCA"
"GU   3588","PULL M/L"
"GU   3608","PULL M/C"
"GU    375","PULL M/L"
"GU    526","pull giroc.m/l"
"GU    529","CARDIGAN"
"GU    676","cardigan +zip m/l"
"GU    755","PULL giroc.m/l"
"GU    776","PULL a V m/l"
"GU    793","CARDIGAN m/l"
"GY     23","64-3870 TWIN SET"
"JM    121","K2686867 COAT"
"JM     16","W4288841 FASCIA"
"LP    495","TOP"
"LR    617","54000612 CARDIGAN M/L"
"LR    622","57000412 PULL S/M"
"LV    400","WIKD03 ABITO C.+bottoni m/l"
"LV    435","WJKW03MKB PLEATED RUFFLE T.TOP"
"RC   5130","CAMP.028 PULL D.GIROCOLLO  M/L"
"RS   9018","17160883-AL  PULL"
"VA   2879","BK90415 PULL D.SCOLLO QUAD. M/"
