code,full_description,description
1,"stitch","stitch"
2,"stitch->structured","structured"
3,"stitch->structured->round","round"
4,"stitch->structured->cloves","cloves"
5,"stitch->structured->chevron","chevron"
6,"stitch->structured->biais","biais"
7,"stitch->structured->rice stitch","rice stitch"
8,"stitch->structured->interlock","interlock"
9,"stitch->structured->links","links"
10,"stitch->structured->losange","losange"
11,"stitch->structured->losange","losange"
12,"stitch->structured->full needle","full needle"
13,"stitch->structured->honeycomb","honeycomb"
14,"stitch->structured->ottoman","ottoman"
15,"stitch->structured->half milano","half milano"
16,"stitch->structured->piquet","piquet"
17,"stitch->structured->weft stitch","weft stitch"
18,"stitch->structured->fur stitch","fur stitch"
19,"stitch->structured->milano","milano"
20,"stitch->structured->chessboard","chessboard"
21,"stitch->structured->embossed","embossed"
22,"stitch->structured->embossed","embossed"
23,"stitch->structured->frill","frill"
24,"stitch->structured->ruffle","ruffle"
25,"stitch->structured->basket","basket"
26,"stitch->structured->duster","duster"
27,"stitch->structured->plissè","plissè"
28,"stitch->structured->plissè","plissè"
29,"stitch->structured->flounce","flounce"
30,"stitch->rib","rib"
31,"stitch->rib->classic thin","classic thin"
32,"stitch->rib->classic thin","classic thin"
33,"stitch->rib->classic thin","classic thin"
34,"stitch->rib->classic large","classic large"
35,"stitch->rib->fantasy","fantasy"
36,"stitch->rib->cardigan","cardigan"
37,"stitch->rib->half cardigan","half cardigan"
38,"stitch->cable","cable"
39,"stitch->cable->thin","thin"
40,"stitch->cable->large","large"
41,"stitch->cable->thin twisted","thin twisted"
42,"stitch->cable->large twisted","large twisted"
43,"stitch->cable->norway/irish","norway/irish"
44,"stitch->jersey","jersey"
45,"stitch->jersey->fantasy","fantasy"
46,"stitch->jersey->fantasy","fantasy"
47,"stitch->jersey->fantasy","fantasy"
48,"stitch->jersey->relief","relief"
49,"stitch->double","double"
50,"stitch->double->solid","solid"
51,"stitch->double->fantasy","fantasy"
52,"stitch->double->quilted","quilted"
53,"stitch->double->bicolor","bicolor"
54,"stitch->lines","lines"
55,"stitch->lines->jersey","jersey"
56,"stitch->lines->rib","rib"
57,"stitch->lines->fantasy","fantasy"
58,"stitch->lines->links","links"
59,"stitch->lines->full needle","full needle"
60,"stitch->lines->piquet","piquet"
61,"stitch->lines->cable","cable"
62,"stitch->by hand","by hand"
63,"stitch->by hand->crochet","crochet"
64,"stitch->by hand->knitting needle","knitting needle"
65,"stitch->by hand->hand loom","hand loom"
66,"stitch->metalic","metalic"
67,"stitch->metalic->lamè","lamè"
68,"stitch->metalic->lurex","lurex"
69,"stitch->metalic->technique","technique"
70,"stitch->multigauge","multigauge"
71,"stitch->multigauge->fantasy","fantasy"
72,"stitch->open-work","open-work"
73,"stitch->open-work->lace stitch","lace stitch"
74,"stitch->open-work->punched","punched"
75,"stitch->open-work->mesh","mesh"
76,"stitch->boiled","boiled"
77,"stitch->boiled->felt","felt"
78,"stitch->boiled->teasel","teasel"
79,"stitch->boiled->fantasy","fantasy"
80,"stitch->tape","tape"
81,"jaquard","jaquard"
82,"jaquard->with theme","with theme"
83,"jaquard->with theme->animal","animal"
84,"jaquard->with theme->flower","flower"
85,"jaquard->with theme->fruit","fruit"
86,"jaquard->with theme->fantasy","fantasy"
87,"jaquard->geometric","geometric"
88,"jaquard->geometric->tie stitch","tie stitch"
89,"jaquard->geometric->striped","striped"
90,"jaquard->geometric->pied de poule","pied de poule"
91,"jaquard->geometric->dot","dot"
92,"jaquard->geometric->chevron","chevron"
93,"jaquard->geometric->prince of walles","prince of walles"
94,"jaquard->geometric->tartan","tartan"
95,"jaquard->geometric->ethnic","ethnic"
96,"jaquard->geometric->patchwork","patchwork"
97,"jaquard->geometric->losange","losange"
98,"jaquard->geometric->biais","biais"
99,"inlay","inlay"
100,"inlay->with theme","with theme"
101,"inlay->with theme->animal","animal"
102,"inlay->with theme->flower","flower"
103,"inlay->with theme->fruit","fruit"
104,"inlay->with theme->fantasy","fantasy"
105,"inlay->geometric","geometric"
106,"inlay->geometric->dot","dot"
107,"inlay->geometric->striped","striped"
108,"inlay->geometric->prince of walles","prince of walles"
109,"inlay->geometric->tartan","tartan"
110,"inlay->geometric->ethnic","ethnic"
111,"inlay->geometric->patchwork","patchwork"
112,"inlay->geometric->losange","losange"
113,"proof finish","proof finish"
114,"proof finish->seam","seam"
115,"proof finish->buttonhole","buttonhole"
116,"proof finish->pocket","pocket"
117,"proof finish->slit","slit"
118,"proof finish->edge","edge"
119,"proof finish->decrease","decrease"
120,"proof finish->collar","collar"
121,"washing tests","washing tests"
122,"washing tests->stone washed","stone washed"
123,"washing tests->smooth hand","smooth hand"
124,"print","print"
125,"print->tye and dye","tye and dye"
126,"print->flocked","flocked"
127,"print->corrosion/devoré","corrosion/devoré"
128,"print->foile","foile"
129,"print->rubber","rubber"
130,"print->blowing","blowing"
131,"print->serigraphy","serigraphy"
132,"print->painting","painting"
133,"print->chiné","chiné"
134,"print->smearing","smearing"
135,"print->pigment","pigment"
136,"print->overprint","overprint"
137,"print->olddyed","olddyed"
138,"print->overdyed","overdyed"
139,"embroidery","embroidery"
140,"embroidery->macramé","macramé"
141,"embroidery->by hand","by hand"
142,"embroidery->multihead","multihead"
143,"embroidery->sequins","sequins"
144,"embroidery->pearl","pearl"
145,"embroidery->beads","beads"
146,"embroidery->feather","feather"
147,"embroidery->cornely","cornely"
148,"embroidery->engraving","engraving"
149,"embroidery->jumping needle","jumping needle"
150,"embroidery->fantasy","fantasy"
151,"embroidery->strass","strass"
