<?xml version="1.0" encoding="UTF-8" standalone="no"?>
<!DOCTYPE svg PUBLIC "-//W3C//DTD SVG 1.1//EN"
 "http://www.w3.org/Graphics/SVG/1.1/DTD/svg11.dtd">
<!-- Generated by graphviz version 2.34.0 (20131130.1725)
 -->
<!-- Title: models_diagram Pages: 1 -->
<svg width="1068pt" height="532pt"
 viewBox="0.00 0.00 1068.00 532.00" xmlns="http://www.w3.org/2000/svg" xmlns:xlink="http://www.w3.org/1999/xlink">
<g id="graph0" class="graph" transform="scale(1 1) rotate(0) translate(4 528)">
<title>models_diagram</title>
<polygon fill="white" stroke="white" points="-4,4 -4,-528 1064,-528 1064,4 -4,4"/>
<!-- _diagram_info -->
<g id="node1" class="node"><title>_diagram_info</title>
<text text-anchor="start" x="7.55029" y="-507" font-family="Times,serif" font-size="13.00">Models diagram</text>
<text text-anchor="start" x="7.55029" y="-491.4" font-family="Times,serif" font-size="13.00">Date: Apr 13 2014 &#45; 14:19</text>
<text text-anchor="start" x="7.55029" y="-475.8" font-family="Times,serif" font-size="13.00">Migration version: 20140118132358</text>
<text text-anchor="start" x="7.55029" y="-460.2" font-family="Times,serif" font-size="13.00">Generated by RailRoady 1.1.1</text>
<text text-anchor="start" x="7.55029" y="-444.6" font-family="Times,serif" font-size="13.00">http://railroady.prestonlee.com</text>
</g>
<!-- Archive -->
<g id="node2" class="node"><title>Archive</title>
<polygon fill="none" stroke="black" points="291.317,-400 230.683,-400 230.683,-364 291.317,-364 291.317,-400"/>
<text text-anchor="middle" x="261" y="-376.4" font-family="Times,serif" font-size="14.00">Archive</text>
</g>
<!-- Brand -->
<g id="node3" class="node"><title>Brand</title>
<ellipse fill="none" stroke="black" cx="344" cy="-382" rx="34.4542" ry="18"/>
<text text-anchor="middle" x="344" y="-376.4" font-family="Times,serif" font-size="14.00">Brand</text>
</g>
<!-- Machine -->
<g id="node4" class="node"><title>Machine</title>
<ellipse fill="none" stroke="black" cx="637" cy="-328" rx="44.2348" ry="18"/>
<text text-anchor="middle" x="637" y="-322.4" font-family="Times,serif" font-size="14.00">Machine</text>
</g>
<!-- Stitch -->
<g id="node8" class="node"><title>Stitch</title>
<ellipse fill="none" stroke="black" cx="583" cy="-166" rx="33.356" ry="18"/>
<text text-anchor="middle" x="583" y="-160.4" font-family="Times,serif" font-size="14.00">Stitch</text>
</g>
<!-- Machine&#45;&gt;Stitch -->
<g id="edge3" class="edge"><title>Machine&#45;&gt;Stitch</title>
<path fill="none" stroke="#32c98b" d="M596.707,-313.042C570.461,-303.856 540.91,-293.296 540,-292 517.982,-260.648 542.964,-217.033 563.012,-190.479"/>
<ellipse fill="none" stroke="#32c98b" cx="600.575" cy="-314.392" rx="4.00001" ry="4.00001"/>
<polygon fill="#32c98b" stroke="#32c98b" points="563.106,-190.359 572.821,-185.273 566.193,-186.426 569.281,-182.494 569.281,-182.494 569.281,-182.494 566.193,-186.426 565.742,-179.715 563.106,-190.359 563.106,-190.359"/>
</g>
<!-- MacroSeason -->
<g id="node5" class="node"><title>MacroSeason</title>
<ellipse fill="none" stroke="black" cx="524" cy="-328" rx="63.3967" ry="18"/>
<text text-anchor="middle" x="524" y="-322.4" font-family="Times,serif" font-size="14.00">MacroSeason</text>
</g>
<!-- MacroSeason&#45;&gt;Stitch -->
<g id="edge5" class="edge"><title>MacroSeason&#45;&gt;Stitch</title>
<path fill="none" stroke="#c8bca7" d="M519.317,-301.757C515.726,-275.054 514.02,-232.629 532,-202 536.243,-194.772 542.639,-188.698 549.481,-183.747"/>
<ellipse fill="none" stroke="#c8bca7" cx="519.935" cy="-305.884" rx="4.00001" ry="4.00001"/>
<polygon fill="#c8bca7" stroke="#c8bca7" points="549.86,-183.502 560.701,-181.851 554.059,-180.787 558.258,-178.072 558.258,-178.072 558.258,-178.072 554.059,-180.787 555.814,-174.293 549.86,-183.502 549.86,-183.502"/>
</g>
<!-- Picture -->
<g id="node6" class="node"><title>Picture</title>
<ellipse fill="none" stroke="black" cx="451" cy="-92" rx="38.0859" ry="18"/>
<text text-anchor="middle" x="451" y="-86.4" font-family="Times,serif" font-size="14.00">Picture</text>
</g>
<!-- Product -->
<g id="node7" class="node"><title>Product</title>
<ellipse fill="none" stroke="black" cx="766" cy="-382" rx="41.1166" ry="18"/>
<text text-anchor="middle" x="766" y="-376.4" font-family="Times,serif" font-size="14.00">Product</text>
</g>
<!-- Product&#45;&gt;Stitch -->
<g id="edge9" class="edge"><title>Product&#45;&gt;Stitch</title>
<path fill="none" stroke="#c16452" d="M764.452,-353.886C761.657,-326.68 753.839,-284.789 732,-256 716.471,-235.529 655.504,-202.834 616.532,-183.287"/>
<polygon fill="#c16452" stroke="#c16452" points="764.455,-353.916 760.837,-364.269 764.888,-358.898 765.321,-363.879 765.321,-363.879 765.321,-363.879 764.888,-358.898 769.804,-363.489 764.455,-353.916 764.455,-353.916"/>
<polygon fill="#c16452" stroke="#c16452" points="616.093,-183.069 609.142,-174.587 611.616,-180.842 607.139,-178.616 607.139,-178.616 607.139,-178.616 611.616,-180.842 605.135,-182.645 616.093,-183.069 616.093,-183.069"/>
</g>
<!-- StitchProduct -->
<g id="node9" class="node"><title>StitchProduct</title>
<ellipse fill="none" stroke="black" cx="828" cy="-92" rx="63.4179" ry="18"/>
<text text-anchor="middle" x="828" y="-86.4" font-family="Times,serif" font-size="14.00">StitchProduct</text>
</g>
<!-- Product&#45;&gt;StitchProduct -->
<g id="edge8" class="edge"><title>Product&#45;&gt;StitchProduct</title>
<path fill="none" stroke="#c0f411" d="M784.581,-358.175C787.065,-354.287 789.327,-350.156 791,-346 822.221,-268.447 827.53,-168.076 828.155,-120.431"/>
<ellipse fill="none" stroke="#c0f411" cx="782.228" cy="-361.577" rx="4.00002" ry="4.00002"/>
<polygon fill="#c0f411" stroke="#c0f411" points="828.156,-120.293 832.726,-110.325 828.191,-115.293 828.226,-110.293 828.226,-110.293 828.226,-110.293 828.191,-115.293 823.726,-110.262 828.156,-120.293 828.156,-120.293"/>
</g>
<!-- StitchType -->
<g id="node10" class="node"><title>StitchType</title>
<ellipse fill="none" stroke="black" cx="602" cy="-274" rx="52.6074" ry="18"/>
<text text-anchor="middle" x="602" y="-268.4" font-family="Times,serif" font-size="14.00">StitchType</text>
</g>
<!-- Product&#45;&gt;StitchType -->
<g id="edge11" class="edge"><title>Product&#45;&gt;StitchType</title>
<path fill="none" stroke="#eabcdb" d="M746.413,-356.604C743.582,-353.053 740.711,-349.437 738,-346 725.446,-330.086 726.596,-321.638 710,-310 694.274,-298.972 674.87,-291.268 656.867,-285.955"/>
<polygon fill="#eabcdb" stroke="#eabcdb" points="746.605,-356.844 749.333,-367.465 749.727,-360.75 752.848,-364.656 752.848,-364.656 752.848,-364.656 749.727,-360.75 756.364,-361.846 746.605,-356.844 746.605,-356.844"/>
<polygon fill="#eabcdb" stroke="#eabcdb" points="656.682,-285.904 648.239,-278.906 651.862,-284.574 647.042,-283.244 647.042,-283.244 647.042,-283.244 651.862,-284.574 645.845,-287.582 656.682,-285.904 656.682,-285.904"/>
</g>
<!-- StitchTypeProduct -->
<g id="node11" class="node"><title>StitchTypeProduct</title>
<ellipse fill="none" stroke="black" cx="717" cy="-166" rx="82.1714" ry="18"/>
<text text-anchor="middle" x="717" y="-160.4" font-family="Times,serif" font-size="14.00">StitchTypeProduct</text>
</g>
<!-- Product&#45;&gt;StitchTypeProduct -->
<g id="edge10" class="edge"><title>Product&#45;&gt;StitchTypeProduct</title>
<path fill="none" stroke="#f5e2b4" d="M772.824,-355.949C781.243,-319.724 791.539,-251.628 766,-202 763.581,-197.298 760.204,-193.089 756.344,-189.359"/>
<ellipse fill="none" stroke="#f5e2b4" cx="771.802" cy="-360.135" rx="4.00001" ry="4.00001"/>
<polygon fill="#f5e2b4" stroke="#f5e2b4" points="756.13,-189.181 751.329,-179.321 752.289,-185.979 748.448,-182.778 748.448,-182.778 748.448,-182.778 752.289,-185.979 745.567,-186.235 756.13,-189.181 756.13,-189.181"/>
</g>
<!-- Stitch&#45;&gt;Picture -->
<g id="edge14" class="edge"><title>Stitch&#45;&gt;Picture</title>
<path fill="none" stroke="#40adba" d="M552.996,-148.634C532.482,-137.445 505.284,-122.609 484.132,-111.072"/>
<ellipse fill="none" stroke="#40adba" cx="556.797" cy="-150.707" rx="4.00002" ry="4.00002"/>
<polygon fill="#40adba" stroke="#40adba" points="483.96,-110.978 477.336,-102.239 479.57,-108.584 475.181,-106.19 475.181,-106.19 475.181,-106.19 479.57,-108.584 473.026,-110.14 483.96,-110.978 483.96,-110.978"/>
</g>
<!-- Stitch&#45;&gt;StitchProduct -->
<g id="edge13" class="edge"><title>Stitch&#45;&gt;StitchProduct</title>
<path fill="none" stroke="#929745" d="M616.278,-151.108C619.211,-150.012 622.148,-148.96 625,-148 673.596,-131.648 729.958,-116.686 770.945,-106.51"/>
<ellipse fill="none" stroke="#929745" cx="612.314" cy="-152.637" rx="4.00001" ry="4.00001"/>
<polygon fill="#929745" stroke="#929745" points="771.047,-106.485 781.833,-108.462 775.902,-105.289 780.757,-104.092 780.757,-104.092 780.757,-104.092 775.902,-105.289 779.68,-99.7231 771.047,-106.485 771.047,-106.485"/>
</g>
<!-- StitchYarn -->
<g id="node12" class="node"><title>StitchYarn</title>
<ellipse fill="none" stroke="black" cx="942" cy="-18" rx="51.3711" ry="18"/>
<text text-anchor="middle" x="942" y="-12.4" font-family="Times,serif" font-size="14.00">StitchYarn</text>
</g>
<!-- Stitch&#45;&gt;StitchYarn -->
<g id="edge15" class="edge"><title>Stitch&#45;&gt;StitchYarn</title>
<path fill="none" stroke="#027e76" d="M611.478,-147.647C644.914,-127.819 702.488,-95.3611 755,-74 799.601,-55.857 852.39,-40.8915 890.488,-31.176"/>
<ellipse fill="none" stroke="#027e76" cx="607.753" cy="-149.869" rx="4.00002" ry="4.00002"/>
<polygon fill="#027e76" stroke="#027e76" points="890.636,-31.139 901.432,-33.0626 895.485,-29.9188 900.333,-28.6987 900.333,-28.6987 900.333,-28.6987 895.485,-29.9188 899.235,-24.3347 890.636,-31.139 890.636,-31.139"/>
</g>
<!-- Yarn -->
<g id="node14" class="node"><title>Yarn</title>
<ellipse fill="none" stroke="black" cx="999" cy="-92" rx="29.0698" ry="18"/>
<text text-anchor="middle" x="999" y="-86.4" font-family="Times,serif" font-size="14.00">Yarn</text>
</g>
<!-- Stitch&#45;&gt;Yarn -->
<g id="edge16" class="edge"><title>Stitch&#45;&gt;Yarn</title>
<path fill="none" stroke="#3312e7" d="M617.522,-150.251C620.03,-149.42 622.54,-148.657 625,-148 744.206,-116.166 778.071,-128.888 900,-110 920.263,-106.861 942.796,-103.019 961.24,-99.7827"/>
<polygon fill="#3312e7" stroke="#3312e7" points="617.373,-150.305 606.437,-149.488 612.673,-152.011 607.973,-153.717 607.973,-153.717 607.973,-153.717 612.673,-152.011 609.509,-157.947 617.373,-150.305 617.373,-150.305"/>
<polygon fill="#3312e7" stroke="#3312e7" points="961.454,-99.745 972.084,-102.438 966.378,-98.8756 971.302,-98.0061 971.302,-98.0061 971.302,-98.0061 966.378,-98.8756 970.519,-93.5746 961.454,-99.745 961.454,-99.745"/>
</g>
<!-- StitchType&#45;&gt;Stitch -->
<g id="edge19" class="edge"><title>StitchType&#45;&gt;Stitch</title>
<path fill="none" stroke="#3210c4" d="M597.52,-248.008C594.619,-231.823 590.842,-210.748 587.867,-194.152"/>
<ellipse fill="none" stroke="#3210c4" cx="598.242" cy="-252.032" rx="4.00001" ry="4.00001"/>
<polygon fill="#3210c4" stroke="#3210c4" points="587.81,-193.832 590.475,-183.194 586.927,-188.91 586.045,-183.988 586.045,-183.988 586.045,-183.988 586.927,-188.91 581.616,-184.782 587.81,-193.832 587.81,-193.832"/>
</g>
<!-- StitchType&#45;&gt;StitchType -->
<g id="edge20" class="edge"><title>StitchType&#45;&gt;StitchType</title>
<path fill="none" stroke="#cbfd6e" d="M653.648,-283.763C664.327,-282.728 672,-279.474 672,-274 672,-268.845 665.195,-265.658 655.483,-264.44"/>
<ellipse fill="none" stroke="#cbfd6e" cx="649.404" cy="-283.949" rx="4" ry="4"/>
<polygon fill="#cbfd6e" stroke="#cbfd6e" points="655.392,-264.435 645.659,-259.383 650.4,-264.155 645.408,-263.876 645.408,-263.876 645.408,-263.876 650.4,-264.155 645.156,-268.369 655.392,-264.435 655.392,-264.435"/>
<text text-anchor="middle" x="697.659" y="-268.4" font-family="Times,serif" font-size="14.00">childrens</text>
</g>
<!-- StitchType&#45;&gt;StitchTypeProduct -->
<g id="edge21" class="edge"><title>StitchType&#45;&gt;StitchTypeProduct</title>
<path fill="none" stroke="#e8d55b" d="M625.595,-251.251C644.81,-233.541 671.881,-208.588 691.573,-190.437"/>
<ellipse fill="none" stroke="#e8d55b" cx="622.407" cy="-254.19" rx="4.00002" ry="4.00002"/>
<polygon fill="#e8d55b" stroke="#e8d55b" points="691.637,-190.378 702.04,-186.91 695.313,-186.989 698.99,-183.601 698.99,-183.601 698.99,-183.601 695.313,-186.989 695.94,-180.292 691.637,-190.378 691.637,-190.378"/>
</g>
<!-- Supplier -->
<g id="node13" class="node"><title>Supplier</title>
<ellipse fill="none" stroke="black" cx="1001" cy="-220" rx="43.1445" ry="18"/>
<text text-anchor="middle" x="1001" y="-214.4" font-family="Times,serif" font-size="14.00">Supplier</text>
</g>
<!-- Supplier&#45;&gt;Yarn -->
<g id="edge25" class="edge"><title>Supplier&#45;&gt;Yarn</title>
<path fill="none" stroke="#d0d2c5" d="M1000.6,-193.507C1000.26,-172.239 999.778,-142.003 999.433,-120.258"/>
<ellipse fill="none" stroke="#d0d2c5" cx="1000.66" cy="-197.745" rx="4" ry="4"/>
<polygon fill="#d0d2c5" stroke="#d0d2c5" points="999.429,-120.046 1003.77,-109.976 999.35,-115.047 999.271,-110.047 999.271,-110.047 999.271,-110.047 999.35,-115.047 994.771,-110.119 999.429,-120.046 999.429,-120.046"/>
</g>
<!-- Yarn&#45;&gt;StitchYarn -->
<g id="edge27" class="edge"><title>Yarn&#45;&gt;StitchYarn</title>
<path fill="none" stroke="#f92bad" d="M981.568,-68.9808C975.185,-60.9183 967.926,-51.7481 961.383,-43.4832"/>
<ellipse fill="none" stroke="#f92bad" cx="984.149" cy="-72.2409" rx="4.00002" ry="4.00002"/>
<polygon fill="#f92bad" stroke="#f92bad" points="961.344,-43.435 958.666,-32.8013 958.241,-39.5148 955.137,-35.5945 955.137,-35.5945 955.137,-35.5945 958.241,-39.5148 951.609,-38.3877 961.344,-43.435 961.344,-43.435"/>
</g>
<!-- Object -->
<g id="node15" class="node"><title>Object</title>
<ellipse fill="none" stroke="black" cx="261" cy="-481" rx="36.1697" ry="18"/>
<text text-anchor="middle" x="261" y="-475.4" font-family="Times,serif" font-size="14.00">Object</text>
</g>
<!-- Object&#45;&gt;Archive -->
<g id="edge1" class="edge"><title>Object&#45;&gt;Archive</title>
<path fill="none" stroke="black" d="M261,-462.658C261,-446.658 261,-422.811 261,-405.379"/>
<polyline fill="none" stroke="black" points="261,-400.192 261,-405.192 "/>
</g>
<!-- ActiveRecord::Base -->
<g id="node16" class="node"><title>ActiveRecord::Base</title>
<ellipse fill="none" stroke="black" cx="720" cy="-481" rx="88.2033" ry="18"/>
<text text-anchor="middle" x="720" y="-475.4" font-family="Times,serif" font-size="14.00">ActiveRecord::Base</text>
</g>
<!-- ActiveRecord::Base&#45;&gt;Brand -->
<g id="edge2" class="edge"><title>ActiveRecord::Base&#45;&gt;Brand</title>
<path fill="none" stroke="black" d="M635.919,-475.295C567.949,-469.006 471.071,-454.314 393,-420 382.601,-415.429 372.369,-408.253 363.967,-401.432"/>
<polyline fill="none" stroke="black" points="359.996,-398.125 363.838,-401.325 "/>
</g>
<!-- ActiveRecord::Base&#45;&gt;Machine -->
<g id="edge4" class="edge"><title>ActiveRecord::Base&#45;&gt;Machine</title>
<path fill="none" stroke="black" d="M708.921,-462.902C701.356,-451.021 691.249,-434.737 683,-420 669.927,-396.646 656.252,-369.138 647.245,-350.527"/>
<polyline fill="none" stroke="black" points="645.058,-345.995 647.231,-350.499 "/>
</g>
<!-- ActiveRecord::Base&#45;&gt;MacroSeason -->
<g id="edge6" class="edge"><title>ActiveRecord::Base&#45;&gt;MacroSeason</title>
<path fill="none" stroke="black" d="M698.276,-463.263C661.636,-435.036 587.772,-378.13 549.023,-348.278"/>
<polyline fill="none" stroke="black" points="544.93,-345.125 548.891,-348.176 "/>
</g>
<!-- ActiveRecord::Base&#45;&gt;Picture -->
<g id="edge7" class="edge"><title>ActiveRecord::Base&#45;&gt;Picture</title>
<path fill="none" stroke="black" d="M643.832,-471.701C551.183,-459.441 407,-432.423 407,-383 407,-383 407,-383 407,-165 407,-145.086 419.407,-126.019 431.044,-112.515"/>
<polyline fill="none" stroke="black" points="434.616,-108.508 431.289,-112.24 "/>
</g>
<!-- ActiveRecord::Base&#45;&gt;Product -->
<g id="edge12" class="edge"><title>ActiveRecord::Base&#45;&gt;Product</title>
<path fill="none" stroke="black" d="M728.224,-462.658C735.924,-446.42 747.457,-422.101 755.753,-404.607"/>
<polyline fill="none" stroke="black" points="758.001,-399.867 755.859,-404.384 "/>
</g>
<!-- ActiveRecord::Base&#45;&gt;Stitch -->
<g id="edge17" class="edge"><title>ActiveRecord::Base&#45;&gt;Stitch</title>
<path fill="none" stroke="black" d="M659.111,-467.923C596.54,-451.914 502.338,-416.966 459,-346 428.84,-296.614 495.113,-221.827 515,-202 525.044,-191.986 538.546,-184.235 550.87,-178.602"/>
<polyline fill="none" stroke="black" points="555.706,-176.471 551.13,-178.488 "/>
</g>
<!-- ActiveRecord::Base&#45;&gt;StitchProduct -->
<g id="edge18" class="edge"><title>ActiveRecord::Base&#45;&gt;StitchProduct</title>
<path fill="none" stroke="black" d="M756.845,-464.555C784.048,-451.3 819.877,-429.632 841,-400 904.146,-311.418 858.443,-169.161 837.235,-114.948"/>
<polyline fill="none" stroke="black" points="835.263,-109.981 837.108,-114.628 "/>
</g>
<!-- ActiveRecord::Base&#45;&gt;StitchType -->
<g id="edge22" class="edge"><title>ActiveRecord::Base&#45;&gt;StitchType</title>
<path fill="none" stroke="black" d="M718.25,-462.791C714.039,-424.417 702.242,-333.38 683,-310 674.243,-299.36 661.639,-291.876 648.973,-286.644"/>
<polyline fill="none" stroke="black" points="644.311,-284.816 648.966,-286.641 "/>
</g>
<!-- ActiveRecord::Base&#45;&gt;StitchTypeProduct -->
<g id="edge23" class="edge"><title>ActiveRecord::Base&#45;&gt;StitchTypeProduct</title>
<path fill="none" stroke="black" d="M745.034,-463.702C766.073,-449.023 795.853,-425.832 816,-400 841.606,-367.169 851.864,-350.45 842,-310 829.191,-257.47 824.403,-240.062 786,-202 778.997,-195.059 770.337,-189.221 761.545,-184.424"/>
<polyline fill="none" stroke="black" points="756.658,-181.865 761.088,-184.184 "/>
</g>
<!-- ActiveRecord::Base&#45;&gt;StitchYarn -->
<g id="edge24" class="edge"><title>ActiveRecord::Base&#45;&gt;StitchYarn</title>
<path fill="none" stroke="black" d="M805.196,-476.012C867.801,-467.943 942,-445.249 942,-383 942,-383 942,-383 942,-91 942,-74.3008 942,-55.4229 942,-41.188"/>
<polyline fill="none" stroke="black" points="942,-36.1662 942,-41.1662 "/>
</g>
<!-- ActiveRecord::Base&#45;&gt;Supplier -->
<g id="edge26" class="edge"><title>ActiveRecord::Base&#45;&gt;Supplier</title>
<path fill="none" stroke="black" d="M791.134,-470.218C851.975,-460.407 933.216,-443.397 956,-420 1003.3,-371.427 1005.03,-284.242 1002.88,-243.337"/>
<polyline fill="none" stroke="black" points="1002.58,-238.115 1002.87,-243.107 "/>
</g>
<!-- ActiveRecord::Base&#45;&gt;Yarn -->
<g id="edge28" class="edge"><title>ActiveRecord::Base&#45;&gt;Yarn</title>
<path fill="none" stroke="black" d="M800.145,-473.19C900.664,-462.39 1060,-436.787 1060,-383 1060,-383 1060,-383 1060,-165 1060,-141.137 1040.25,-121.12 1023.23,-108.298"/>
<polyline fill="none" stroke="black" points="1018.97,-105.195 1023.01,-108.141 "/>
</g>
</g>
</svg>
